%YAML 1.1
%TAG !u! tag:unity3d.com,2011:
--- !u!114 &11400000
MonoBehaviour:
  m_ObjectHideFlags: 0
  m_CorrespondingSourceObject: {fileID: 0}
  m_PrefabInstance: {fileID: 0}
  m_PrefabAsset: {fileID: 0}
  m_GameObject: {fileID: 0}
  m_Enabled: 1
  m_EditorHideFlags: 0
  m_Script: {fileID: 11500000, guid: e8d6e9c8237d45c409bcb3973ef4b4e3, type: 3}
  m_Name: ChallengesConfig
  m_EditorClassIdentifier: 
  m_Sections:
  - m_SectionName: Bronze
    m_Challenges:
    - m_ChallengeName: Fast 1
      m_Description: 
      m_Icon: {fileID: 21300000, guid: e7e3fdce38fddae4fa3b8b4bc4b91125, type: 3}
      m_GameConfig: {fileID: 11400000, guid: 0ae2c5ec5845ba74fa0caa5d4df92654, type: 2}
    - m_ChallengeName: Survive 1
      m_Description: 
      m_Icon: {fileID: 21300000, guid: 49c8de0f63088a14994ccf06f5330472, type: 3}
      m_GameConfig: {fileID: 11400000, guid: a241acb27a59b234c9d2e10ab8aa94bb, type: 2}
    - m_ChallengeName: Other 1
      m_Description: 
      m_Icon: {fileID: 21300000, guid: 813bc41c066ea724ab87b390a40606f6, type: 3}
      m_GameConfig: {fileID: 11400000, guid: 79695d4342107e849b77847c151cc178, type: 2}
  - m_SectionName: Argent
    m_Challenges:
    - m_ChallengeName: Fast 2
      m_Description: 
      m_Icon: {fileID: 21300000, guid: 57597df136e35cf41aecd2df3ea26478, type: 3}
      m_GameConfig: {fileID: 0}
    - m_ChallengeName: Fast 3
      m_Description: 
      m_Icon: {fileID: 21300000, guid: 883e2485d80ffa9459dc802fe541eeca, type: 3}
      m_GameConfig: {fileID: 0}
    - m_ChallengeName: Survive 2
      m_Description: 
      m_Icon: {fileID: 21300000, guid: 6c4a19cfddf29c1498a4d3242edd7549, type: 3}
      m_GameConfig: {fileID: 0}
    - m_ChallengeName: Other 2
      m_Description: 
      m_Icon: {fileID: 21300000, guid: ae7eec0dab535894ea98b510fd20b679, type: 3}
      m_GameConfig: {fileID: 0}
    - m_ChallengeName: Survive 3
      m_Description: 
      m_Icon: {fileID: 21300000, guid: f5b02a9c759e4384ba2a17867bf964cf, type: 3}
      m_GameConfig: {fileID: 0}
