%YAML 1.1
%TAG !u! tag:unity3d.com,2011:
--- !u!114 &11400000
MonoBehaviour:
  m_ObjectHideFlags: 0
  m_CorrespondingSourceObject: {fileID: 0}
  m_PrefabInstance: {fileID: 0}
  m_PrefabAsset: {fileID: 0}
  m_GameObject: {fileID: 0}
  m_Enabled: 1
  m_EditorHideFlags: 0
  m_Script: {fileID: 11500000, guid: 401f564aaf2796346a71e6c9db76f179, type: 3}
  m_Name: MedalsConfig
  m_EditorClassIdentifier: 
  m_Medals:
  - m_UnlockScore: 10
    m_MedalName: Bronze
    m_Description: 
    m_Icon: {fileID: 21300000, guid: c4f28c7753234eb4baa1ae72f233d3dc, type: 3}
  - m_UnlockScore: 25
    m_MedalName: Argent
    m_Description: 
    m_Icon: {fileID: 21300000, guid: f57b1c503638d4e4eaa7d20903823f1b, type: 3}
  - m_UnlockScore: 50
    m_MedalName: Bronze
    m_Description: 
    m_Icon: {fileID: 21300000, guid: 7bb9a6bda75faa74ba01389fa8103c54, type: 3}
  - m_UnlockScore: 100
    m_MedalName: Bronze Ruby
    m_Description: 
    m_Icon: {fileID: 21300000, guid: 0a1ccee9542303a40ac011f4b8509ce4, type: 3}
  - m_UnlockScore: 150
    m_MedalName: Argent Ruby
    m_Description: 
    m_Icon: {fileID: 21300000, guid: 8737f13225d1ed446821673c37fa1322, type: 3}
  - m_UnlockScore: 200
    m_MedalName: Gold Ruby
    m_Description: 
    m_Icon: {fileID: 21300000, guid: 09deaab74651d4247b1675322bb1999f, type: 3}
  - m_UnlockScore: 300
    m_MedalName: Diamond
    m_Description: 
    m_Icon: {fileID: 21300000, guid: 3b03db3d863d59540b381df85af3f046, type: 3}
