%YAML 1.1
%TAG !u! tag:unity3d.com,2011:
--- !u!1 &8882094003490307505
GameObject:
  m_ObjectHideFlags: 0
  m_CorrespondingSourceObject: {fileID: 0}
  m_PrefabInstance: {fileID: 0}
  m_PrefabAsset: {fileID: 0}
  serializedVersion: 6
  m_Component:
  - component: {fileID: 8882094003490307507}
  - component: {fileID: 8882094003490307506}
  m_Layer: 0
  m_Name: TunnelBuilder
  m_TagString: Untagged
  m_Icon: {fileID: 0}
  m_NavMeshLayer: 0
  m_StaticEditorFlags: 0
  m_IsActive: 1
--- !u!4 &8882094003490307507
Transform:
  m_ObjectHideFlags: 0
  m_CorrespondingSourceObject: {fileID: 0}
  m_PrefabInstance: {fileID: 0}
  m_PrefabAsset: {fileID: 0}
  m_GameObject: {fileID: 8882094003490307505}
  m_LocalRotation: {x: 0, y: 0, z: 0, w: 1}
  m_LocalPosition: {x: -1.1095865, y: -0.08743805, z: -0.201962}
  m_LocalScale: {x: 1, y: 1, z: 1}
  m_Children: []
  m_Father: {fileID: 0}
  m_RootOrder: 0
  m_LocalEulerAnglesHint: {x: 0, y: 0, z: 0}
--- !u!114 &8882094003490307506
MonoBehaviour:
  m_ObjectHideFlags: 0
  m_CorrespondingSourceObject: {fileID: 0}
  m_PrefabInstance: {fileID: 0}
  m_PrefabAsset: {fileID: 0}
  m_GameObject: {fileID: 8882094003490307505}
  m_Enabled: 1
  m_EditorHideFlags: 0
  m_Script: {fileID: 11500000, guid: 32619387c488a1443bf45da9bdb85adf, type: 3}
  m_Name: 
  m_EditorClassIdentifier: 
  m_PipePrefab: {fileID: 6109960204673139445, guid: 482b752babb5a0b4a84372f4d7da7dd5,
    type: 3}
  m_InitialPipesCount: 10
  m_SwapPipesPlayerDistance: 15
